doppler/100ms_no_movement.csv

Record Length,2500,Points,474.999978906E-6,1.8000000,
Sample Interval,100.0000012E-9,s,475.099979667E-6,1.8399999,
Trigger Point,-4.74999996E3,Samples,475.199980428E-6,2.0000000,
,,,475.299981190E-6,2.0000000,
,,,475.399981951E-6,2.1199999,
,,,475.499982713E-6,2.1599998,
Source,CH1,,475.599983474E-6,2.2800000,
Vertical Units,Volts,,475.699984236E-6,2.2800000,
Vertical Scale,999.999977648E-3,,475.799984997E-6,2.3999999,
Vertical Offset,0,,475.899985759E-6,2.3999999,
Horizontal Units,s,,475.999986520E-6,2.5999999,
Horizontal Scale,25.00000029E-6,,476.099987281E-6,2.5999999,
Pt Fmt,Y,,476.199988043E-6,2.6399999,
Yzero,280.00000000E-3,,476.299988804E-6,2.6399999,
Probe Atten,10.0000000,,476.399989566E-6,2.75999999,
,,,476.499990327E-6,2.75999999,
Note,TBS 1052B-EDU - 16:23:10   2025-11-20,,476.599991089E-6,2.87999988,
,,,476.699991850E-6,2.87999988,
,,,476.799992612E-6,3.00000000,
,,,476.899993373E-6,3.00000000,
,,,476.999965031E-6,3.07999992,
,,,477.099965792E-6,3.03999996,
,,,477.199966554E-6,3.11999989,
,,,477.299967315E-6,3.19999981,
,,,477.399968076E-6,3.24000001,
,,,477.499968838E-6,3.19999981,
,,,477.599969599E-6,3.31999993,
,,,477.699970361E-6,3.31999993,
,,,477.799971122E-6,3.35999990,
,,,477.899971884E-6,3.35999990,
,,,477.999972645E-6,3.43999982,
,,,478.099973407E-6,3.39999986,
,,,478.199974168E-6,3.48000002,
,,,478.299974930E-6,3.48000002,
,,,478.399975691E-6,3.43999982,
,,,478.499976452E-6,3.51999998,
,,,478.599977214E-6,3.48000002,
,,,478.699977975E-6,3.48000002,
,,,478.799978737E-6,3.48000002,
,,,478.899979498E-6,3.51999998,
,,,478.999980260E-6,3.55999994,
,,,479.099981021E-6,3.51999998,
,,,479.199981783E-6,3.55999994,
,,,479.299982544E-6,3.55999994,
,,,479.399983305E-6,3.48000002,
,,,479.499984067E-6,3.51999998,
,,,479.599984828E-6,3.48000002,
,,,479.699985590E-6,3.51999998,
,,,479.799986351E-6,3.48000002,
,,,479.899987113E-6,3.43999982,
,,,479.999987874E-6,3.39999986,
,,,480.099988636E-6,3.48000002,
,,,480.199989397E-6,3.35999990,
,,,480.299990159E-6,3.35999990,
,,,480.399990920E-6,3.31999993,
,,,480.499991681E-6,3.31999993,
,,,480.599992443E-6,3.24000001,
,,,480.699993204E-6,3.24000001,
,,,480.799964862E-6,3.24000001,
,,,480.899965623E-6,3.11999989,
,,,480.999966385E-6,3.07999992,
,,,481.099967146E-6,3.07999992,
,,,481.199967908E-6,3.07999992,
,,,481.299968669E-6,3.00000000,
,,,481.399969431E-6,2.91999984,
,,,481.499970192E-6,2.91999984,
,,,481.599970954E-6,2.83999991,
,,,481.699971715E-6,2.75999999,
,,,481.799972476E-6,2.6799998,
,,,481.899973238E-6,2.6799998,
,,,481.999973999E-6,2.5999999,
,,,482.099974761E-6,2.5599999,
,,,482.199975522E-6,2.4400001,
,,,482.299976284E-6,2.4400001,
,,,482.399977045E-6,2.2800000,
,,,482.499977807E-6,2.3199999,
,,,482.599978568E-6,2.1599998,
,,,482.699979329E-6,2.2000000,
,,,482.799980091E-6,2.0400000,
,,,482.899980852E-6,2.0400000,
,,,482.999981614E-6,1.8800000,
,,,483.099982375E-6,1.8800000,
,,,483.199983137E-6,1.7600000,
,,,483.299983898E-6,1.7600000,
,,,483.399984660E-6,1.5999999,
,,,483.499985421E-6,1.6400000,
,,,483.599986183E-6,1.4000000,
,,,483.699986944E-6,1.4800000,
,,,483.799987705E-6,1.2800000,
,,,483.899988467E-6,1.2800000,
,,,483.999989228E-6,1.1200000,
,,,484.099989990E-6,1.1200000,
,,,484.199990751E-6,919.999957085E-3,
,,,484.299991513E-6,879.999995232E-3,
,,,484.399992274E-6,759.999990463E-3,
,,,484.499993036E-6,759.999990463E-3,
,,,484.599964693E-6,560.000002384E-3,
,,,484.699965455E-6,519.999980927E-3,
,,,484.799966216E-6,359.99998450E-3,
,,,484.899966978E-6,399.99997616E-3,
,,,484.999967739E-6,280.00000119E-3,
,,,485.099968500E-6,199.99998808E-3,
,,,485.199969262E-6,39.99999911E-3,
,,,485.299970023E-6,39.99999911E-3,
,,,485.399970785E-6,-119.9999973E-3,
,,,485.499971546E-6,-119.9999973E-3,
,,,485.599972308E-6,-239.99999464E-3,
,,,485.699973069E-6,-280.00000119E-3,
,,,485.799973831E-6,-479.999989271E-3,
,,,485.899974592E-6,-479.999989271E-3,
,,,485.999975353E-6,-639.999985695E-3,
,,,486.099976115E-6,-639.999985695E-3,
,,,486.199976876E-6,-759.999990463E-3,
,,,486.299977638E-6,-839.999973774E-3,
,,,486.399978399E-6,-1.000000,
,,,486.499979161E-6,-1.000000,
,,,486.599979922E-6,-1.1600000,
,,,486.699980684E-6,-1.1600000,
,,,486.799981445E-6,-1.2800000,
,,,486.899982207E-6,-1.2800000,
,,,486.999982968E-6,-1.4399999,
,,,487.099983729E-6,-1.4800000,
,,,487.199984491E-6,-1.6400000,
,,,487.299985252E-6,-1.6400000,
,,,487.399986014E-6,-1.8000000,
,,,487.499986775E-6,-1.8000000,
,,,487.599987537E-6,-1.9599999,
,,,487.699988298E-6,-1.9599999,
,,,487.799989060E-6,-2.0799999,
,,,487.899989821E-6,-2.0799999,
,,,487.999990582E-6,-2.2400000,
,,,488.099991344E-6,-2.2000000,
,,,488.199992105E-6,-2.3999999,
,,,488.299992867E-6,-2.3599999,
,,,488.399993628E-6,-2.4800000,
,,,488.499994390E-6,-2.4400001,
,,,488.599995151E-6,-2.5999999,
,,,488.699995913E-6,-2.5200000,
,,,488.799996674E-6,-2.72000003,
,,,488.899997436E-6,-2.72000003,
,,,488.999998197E-6,-2.79999995,
,,,489.099998958E-6,-2.83999991,
,,,489.199999720E-6,-2.91999984,
,,,489.300000481E-6,-2.91999984,
,,,489.400001243E-6,-3.03999996,
,,,489.500002004E-6,-3.07999992,
,,,489.600002766E-6,-3.11999989,
,,,489.700003527E-6,-3.15999985,
,,,489.800004289E-6,-3.15999985,
,,,489.900005050E-6,-3.15999985,
,,,490.000005811E-6,-3.27999997,
,,,490.100006573E-6,-3.27999997,
,,,490.200007334E-6,-3.31999993,
,,,490.300008096E-6,-3.31999993,
,,,490.399950650E-6,-3.39999986,
,,,490.499951411E-6,-3.43999982,
,,,490.599952172E-6,-3.43999982,
,,,490.699952934E-6,-3.43999982,
,,,490.799953695E-6,-3.48000002,
,,,490.899954457E-6,-3.48000002,
,,,490.999955218E-6,-3.51999998,
,,,491.099955980E-6,-3.51999998,
,,,491.199956741E-6,-3.51999998,
,,,491.299957503E-6,-3.48000002,
,,,491.399958264E-6,-3.51999998,
,,,491.499959026E-6,-3.59999990,
,,,491.599959787E-6,-3.55999994,
,,,491.699960548E-6,-3.59999990,
,,,491.799961310E-6,-3.51999998,
,,,491.899962071E-6,-3.59999990,
,,,491.999962833E-6,-3.48000002,
,,,492.099963594E-6,-3.55999994,
,,,492.199964356E-6,-3.55999994,
,,,492.299965117E-6,-3.55999994,
,,,492.399965879E-6,-3.43999982,
,,,492.499966640E-6,-3.48000002,
,,,492.599967401E-6,-3.43999982,
,,,492.699968163E-6,-3.48000002,
,,,492.799968924E-6,-3.39999986,
,,,492.899969686E-6,-3.35999990,
,,,492.999970447E-6,-3.35999990,
,,,493.099971209E-6,-3.35999990,
,,,493.199971970E-6,-3.24000001,
,,,493.299972732E-6,-3.31999993,
,,,493.399973493E-6,-3.24000001,
,,,493.499974255E-6,-3.19999981,
,,,493.599975016E-6,-3.11999989,
,,,493.699975777E-6,-3.07999992,
,,,493.799976539E-6,-3.00000000,
,,,493.899977300E-6,-3.03999996,
,,,493.999978062E-6,-3.00000000,
,,,494.099978823E-6,-2.96000004,
,,,494.199979585E-6,-2.79999995,
,,,494.299980346E-6,-2.83999991,
,,,494.399981108E-6,-2.6799998,
,,,494.499981869E-6,-2.72000003,
,,,494.599982630E-6,-2.5599999,
,,,494.699983392E-6,-2.5599999,
,,,494.799984153E-6,-2.5200000,
,,,494.899984915E-6,-2.5200000,
,,,494.999985676E-6,-2.3599999,
,,,495.099986438E-6,-2.3999999,
,,,495.199987199E-6,-2.2000000,
,,,495.299987961E-6,-2.1599998,
,,,495.399988722E-6,-2.0799999,
,,,495.499989484E-6,-2.0799999,
,,,495.599990245E-6,-1.9200000,
,,,495.699991006E-6,-1.9599999,
,,,495.799991768E-6,-1.7600000,
,,,495.899992529E-6,-1.7600000,
,,,495.999993291E-6,-1.6799999,
,,,496.099994052E-6,-1.6400000,
,,,496.199994814E-6,-1.5200000,
,,,496.299995575E-6,-1.5200000,
,,,496.399996337E-6,-1.3199999,
,,,496.499997098E-6,-1.3600000,
,,,496.599997859E-6,-1.1600000,
,,,496.699998621E-6,-1.1600000,
,,,496.799999382E-6,-1.000000,
,,,496.900000144E-6,-1.000000,
,,,497.000000905E-6,-919.999957085E-3,
,,,497.100001667E-6,-879.999995232E-3,
,,,497.200002428E-6,-680.000007153E-3,
,,,497.300003190E-6,-680.000007153E-3,
,,,497.400003951E-6,-519.999980927E-3,
,,,497.500004712E-6,-560.000002384E-3,
,,,497.600005474E-6,-359.99998450E-3,
,,,497.700006235E-6,-319.99999285E-3,
,,,497.800006997E-6,-159.99999642E-3,
,,,497.900007758E-6,-199.99998808E-3,
,,,497.999950312E-6,0.0,
,,,498.099951074E-6,0.0,
,,,498.199951835E-6,119.9999973E-3,
,,,498.299952596E-6,159.99999642E-3,
,,,498.399953358E-6,319.99999285E-3,
,,,498.499954119E-6,319.99999285E-3,
,,,498.599954881E-6,479.999989271E-3,
,,,498.699955642E-6,519.999980927E-3,
,,,498.799956404E-6,639.999985695E-3,
,,,498.899957165E-6,599.999964237E-3,
,,,498.999957927E-6,799.999952316E-3,
,,,499.099958688E-6,799.999952316E-3,
,,,499.199959449E-6,919.999957085E-3,
,,,499.299960211E-6,1.000000,
,,,499.399960972E-6,1.1200000,
,,,499.499961734E-6,1.1999999,
,,,499.599962495E-6,1.2800000,
,,,499.699963257E-6,1.3600000,
,,,499.799964018E-6,1.4399999,
,,,499.899964780E-6,1.4800000,
,,,499.999965541E-6,1.5599999,
,,,500.099966303E-6,1.5599999,
,,,500.199967064E-6,1.7600000,
,,,500.299967825E-6,1.7199999,
,,,500.399968587E-6,1.8800000,
,,,500.499969348E-6,1.8800000,
,,,500.599970110E-6,2.0400000,
,,,500.699970871E-6,1.9599999,
,,,500.799971633E-6,2.1599998,
,,,500.899972394E-6,2.1599998,
,,,500.999973156E-6,2.3199999,
,,,501.099973917E-6,2.2800000,
,,,501.199974678E-6,2.3599999,
,,,501.299975440E-6,2.3999999,
,,,501.399976201E-6,2.4800000,
,,,501.499976963E-6,2.4800000,
,,,501.599977724E-6,2.5999999,
,,,501.699978486E-6,2.6399999,
,,,501.799979247E-6,2.6399999,
,,,501.899980009E-6,2.6799998,
,,,501.999980770E-6,2.79999995,
,,,502.099981532E-6,2.75999999,
,,,502.199982293E-6,2.83999991,
,,,502.299983054E-6,2.83999991,
,,,502.399983816E-6,2.96000004,
,,,502.499984577E-6,2.91999984,
,,,502.599985339E-6,3.03999996,
,,,502.699986100E-6,3.03999996,
,,,502.799986862E-6,3.11999989,
,,,502.899987623E-6,3.03999996,
,,,502.999988385E-6,3.11999989,
,,,503.099989146E-6,3.15999985,
,,,503.199989907E-6,3.19999981,
,,,503.299990669E-6,3.15999985,
,,,503.399991430E-6,3.24000001,
,,,503.499992192E-6,3.24000001,
,,,503.599992953E-6,3.27999997,
,,,503.699993715E-6,3.27999997,
,,,503.799994476E-6,3.31999993,
,,,503.899995238E-6,3.27999997,
,,,503.999995999E-6,3.27999997,
,,,504.099996760E-6,3.31999993,
,,,504.199997522E-6,3.27999997,
,,,504.299998283E-6,3.19999981,
,,,504.399999045E-6,3.27999997,
,,,504.499999806E-6,3.27999997,
,,,504.600000568E-6,3.31999993,
,,,504.700001329E-6,3.27999997,
,,,504.800002091E-6,3.27999997,
,,,504.900002852E-6,3.24000001,
,,,505.000003614E-6,3.19999981,
,,,505.100004375E-6,3.19999981,
,,,505.200005136E-6,3.15999985,
,,,505.300005898E-6,3.15999985,
,,,505.400006659E-6,3.11999989,
,,,505.500007421E-6,3.11999989,
,,,505.600008182E-6,3.07999992,
,,,505.699950736E-6,3.07999992,
,,,505.799951497E-6,3.03999996,
,,,505.899952259E-6,3.00000000,
,,,505.999953020E-6,2.96000004,
,,,506.099953782E-6,2.96000004,
,,,506.199954543E-6,2.83999991,
,,,506.299955305E-6,2.83999991,
,,,506.399956066E-6,2.75999999,
,,,506.499956828E-6,2.79999995,
,,,506.599957589E-6,2.6799998,
,,,506.699958351E-6,2.72000003,
,,,506.799959112E-6,2.5599999,
,,,506.899959873E-6,2.5599999,
,,,506.999960635E-6,2.4800000,
,,,507.099961396E-6,2.5200000,
,,,507.199962158E-6,2.3999999,
,,,507.299962919E-6,2.3599999,
,,,507.399963681E-6,2.2400000,
,,,507.499964442E-6,2.2400000,
,,,507.599965204E-6,2.2000000,
,,,507.699965965E-6,2.1599998,
,,,507.799966726E-6,1.9599999,
,,,507.899967488E-6,2.0000000,
,,,507.999968249E-6,1.8800000,
,,,508.099969011E-6,1.9200000,
,,,508.199969772E-6,1.7600000,
,,,508.299970534E-6,1.7199999,
,,,508.399971295E-6,1.5999999,
,,,508.499972057E-6,1.5999999,
,,,508.599972818E-6,1.4800000,
,,,508.699973579E-6,1.4800000,
,,,508.799974341E-6,1.2800000,
,,,508.899975102E-6,1.2800000,
,,,508.999975864E-6,1.1200000,
,,,509.099976625E-6,1.1600000,
,,,509.199977387E-6,959.999978542E-3,
,,,509.299978148E-6,959.999978542E-3,
,,,509.399978910E-6,879.999995232E-3,
,,,509.499979671E-6,799.999952316E-3,
,,,509.599980433E-6,719.999969006E-3,
,,,509.699981194E-6,639.999985695E-3,
,,,509.799981955E-6,519.999980927E-3,
,,,509.899982717E-6,479.999989271E-3,
,,,509.999983478E-6,359.99998450E-3,
,,,510.099984240E-6,359.99998450E-3,
,,,510.199985001E-6,159.99999642E-3,
,,,510.299985763E-6,199.99998808E-3,
,,,510.399986524E-6,39.99999911E-3,
,,,510.499987286E-6,0.0,
,,,510.599988047E-6,-79.999998212E-3,
,,,510.699988808E-6,-119.9999973E-3,
,,,510.799989570E-6,-319.99999285E-3,
,,,510.899990331E-6,-239.99999464E-3,
,,,510.999991093E-6,-479.999989271E-3,
,,,511.099991854E-6,-479.999989271E-3,
,,,511.199992616E-6,-560.000002384E-3,
,,,511.299993377E-6,-599.999964237E-3,
,,,511.399994139E-6,-759.999990463E-3,
,,,511.499994900E-6,-799.999952316E-3,
,,,511.599995662E-6,-919.999957085E-3,
,,,511.699996423E-6,-919.999957085E-3,
,,,511.799997184E-6,-1.0400000,
,,,511.899997946E-6,-1.0799999,
,,,511.999998707E-6,-1.2800000,
,,,512.099999469E-6,-1.2400000,
,,,512.200000230E-6,-1.3600000,
,,,512.300000992E-6,-1.3600000,
,,,512.400001753E-6,-1.5200000,
,,,512.500002515E-6,-1.5200000,
,,,512.600003276E-6,-1.7199999,
,,,512.700004037E-6,-1.6799999,
,,,512.800004799E-6,-1.8000000,
,,,512.900005560E-6,-1.8000000,
,,,513.000006322E-6,-1.9200000,
,,,513.100007083E-6,-2.0000000,
,,,513.200007845E-6,-2.0799999,
,,,513.299950399E-6,-2.0799999,
,,,513.399951160E-6,-2.2400000,
,,,513.499951921E-6,-2.2400000,
,,,513.599952683E-6,-2.3599999,
,,,513.699953444E-6,-2.3199999,
,,,513.799954206E-6,-2.4800000,
,,,513.899954967E-6,-2.4400001,
,,,513.999955729E-6,-2.5200000,
,,,514.099956490E-6,-2.5200000,
,,,514.199957252E-6,-2.5999999,
,,,514.299958013E-6,-2.6399999,
,,,514.399958774E-6,-2.72000003,
,,,514.499959536E-6,-2.6399999,
,,,514.599960297E-6,-2.83999991,
,,,514.699961059E-6,-2.79999995,
,,,514.799961820E-6,-2.87999988,
,,,514.899962582E-6,-2.87999988,
,,,514.999963343E-6,-2.91999984,
,,,515.099964105E-6,-2.96000004,
,,,515.199964866E-6,-3.03999996,
,,,515.299965627E-6,-3.03999996,
,,,515.399966389E-6,-3.07999992,
,,,515.499967150E-6,-3.07999992,
,,,515.599967912E-6,-3.15999985,
,,,515.699968673E-6,-3.07999992,
,,,515.799969435E-6,-3.19999981,
,,,515.899970196E-6,-3.19999981,
,,,515.999970958E-6,-3.15999985,
,,,516.099971719E-6,-3.24000001,
,,,516.199972481E-6,-3.31999993,
,,,516.299973242E-6,-3.24000001,
,,,516.399974003E-6,-3.27999997,
,,,516.499974765E-6,-3.24000001,
,,,516.599975526E-6,-3.27999997,
,,,516.699976288E-6,-3.31999993,
,,,516.799977049E-6,-3.31999993,
,,,516.899977811E-6,-3.24000001,
,,,516.999978572E-6,-3.27999997,
,,,517.099979334E-6,-3.27999997,
,,,517.199980095E-6,-3.27999997,
,,,517.299980856E-6,-3.27999997,
,,,517.399981618E-6,-3.27999997,
,,,517.499982379E-6,-3.19999981,
,,,517.599983141E-6,-3.19999981,
,,,517.699983902E-6,-3.24000001,
,,,517.799984664E-6,-3.19999981,
,,,517.899985425E-6,-3.19999981,
,,,517.999986187E-6,-3.11999989,
,,,518.099986948E-6,-3.07999992,
,,,518.199987710E-6,-3.07999992,
,,,518.299988471E-6,-3.07999992,
,,,518.399989232E-6,-3.07999992,
,,,518.499989994E-6,-3.00000000,
,,,518.599990755E-6,-3.00000000,
,,,518.699991517E-6,-2.96000004,
,,,518.799992278E-6,-2.87999988,
,,,518.899993040E-6,-2.87999988,
,,,518.999993801E-6,-2.79999995,
,,,519.099994563E-6,-2.79999995,
,,,519.199995324E-6,-2.75999999,
,,,519.299996085E-6,-2.6799998,
,,,519.399996847E-6,-2.6799998,
,,,519.499997608E-6,-2.5999999,
,,,519.599998370E-6,-2.5599999,
,,,519.699999131E-6,-2.4800000,
,,,519.799999893E-6,-2.4400001,
,,,519.900000654E-6,-2.3999999,
,,,520.000001416E-6,-2.3199999,
,,,520.100002177E-6,-2.3199999,
,,,520.200002939E-6,-2.2000000,
,,,520.300003700E-6,-2.2400000,
,,,520.400004461E-6,-2.0799999,
,,,520.500005223E-6,-2.0799999,
,,,520.600005984E-6,-1.9599999,
,,,520.700006746E-6,-1.9599999,
,,,520.800007507E-6,-1.7600000,
,,,520.900008269E-6,-1.8399999,
,,,520.999950822E-6,-1.6400000,
,,,521.099951584E-6,-1.7199999,
,,,521.199952345E-6,-1.5599999,
,,,521.299953107E-6,-1.4800000,
,,,521.399953868E-6,-1.4399999,
,,,521.499954630E-6,-1.4000000,
,,,521.599955391E-6,-1.2400000,
,,,521.699956153E-6,-1.1999999,
,,,521.799956914E-6,-1.0799999,
,,,521.899957675E-6,-1.1200000,
,,,521.999958437E-6,-959.999978542E-3,
,,,522.099959198E-6,-959.999978542E-3,
,,,522.199959960E-6,-799.999952316E-3,
,,,522.299960721E-6,-799.999952316E-3,
,,,522.399961483E-6,-599.999964237E-3,
,,,522.499962244E-6,-599.999964237E-3,
,,,522.599963006E-6,-439.999997616E-3,
,,,522.699963767E-6,-519.999980927E-3,
,,,522.799964529E-6,-319.99999285E-3,
,,,522.899965290E-6,-319.99999285E-3,
,,,522.999966051E-6,-159.99999642E-3,
,,,523.099966813E-6,-199.99998808E-3,
,,,523.199967574E-6,0.0,
,,,523.299968336E-6,-39.99999911E-3,
,,,523.399969097E-6,119.9999973E-3,
,,,523.499969859E-6,159.99999642E-3,
,,,523.599970620E-6,319.99999285E-3,
,,,523.699971382E-6,280.00000119E-3,
,,,523.799972143E-6,439.999997616E-3,
,,,523.899972904E-6,479.999989271E-3,
,,,523.999973666E-6,599.999964237E-3,
,,,524.099974427E-6,599.999964237E-3,
,,,524.199975189E-6,719.999969006E-3,
,,,524.299975950E-6,759.999990463E-3,
,,,524.399976712E-6,879.999995232E-3,
,,,524.499977473E-6,919.999957085E-3,
,,,524.599978235E-6,1.0799999,
,,,524.699978996E-6,1.0400000,
,,,524.799979758E-6,1.2400000,
,,,524.899980519E-6,1.2400000,
,,,524.999981280E-6,1.3199999,
,,,525.099982042E-6,1.3600000,
,,,525.199982803E-6,1.4800000,
,,,525.299983565E-6,1.4399999,
,,,525.399984326E-6,1.6400000,
,,,525.499985088E-6,1.6400000,
,,,525.599985849E-6,1.7600000,
,,,525.699986611E-6,1.7600000,
,,,525.799987372E-6,1.8800000,
,,,525.899988133E-6,1.8800000,
,,,525.999988895E-6,1.9200000,
,,,526.099989656E-6,1.9599999,
,,,526.199990418E-6,2.1199999,
,,,526.299991179E-6,2.1599998,
,,,526.399991941E-6,2.2400000,
,,,526.499992702E-6,2.2400000,
,,,526.599993464E-6,2.3199999,
,,,526.699994225E-6,2.2800000,
,,,526.799994987E-6,2.4400001,
,,,526.899995748E-6,2.4800000,
,,,526.999996509E-6,2.5200000,
,,,527.099997271E-6,2.5200000,
,,,527.199998032E-6,2.5599999,
,,,527.299998794E-6,2.5599999,
,,,527.399999555E-6,2.6799998,
,,,527.500000317E-6,2.6399999,
,,,527.600001078E-6,2.75999999,
,,,527.700001840E-6,2.75999999,
,,,527.800002601E-6,2.75999999,
,,,527.900003362E-6,2.75999999,
,,,528.000004124E-6,2.79999995,
,,,528.100004885E-6,2.87999988,
,,,528.200005647E-6,2.91999984,
,,,528.300006408E-6,2.87999988,
,,,528.400007170E-6,2.91999984,
,,,528.500007931E-6,2.91999984,
,,,528.599950485E-6,2.91999984,
,,,528.699951246E-6,3.00000000,
,,,528.799952008E-6,2.96000004,
,,,528.899952769E-6,3.00000000,
,,,528.999953531E-6,3.00000000,
,,,529.099954292E-6,3.03999996,
,,,529.199955054E-6,3.07999992,
,,,529.299955815E-6,3.03999996,
,,,529.399956577E-6,3.03999996,
,,,529.499957338E-6,3.00000000,
,,,529.599958099E-6,3.03999996,
,,,529.699958861E-6,3.00000000,
,,,529.799959622E-6,3.00000000,
,,,529.899960384E-6,3.00000000,
,,,529.999961145E-6,3.03999996,
,,,530.099961907E-6,3.00000000,
,,,530.199962668E-6,2.91999984,
,,,530.299963430E-6,2.87999988,
,,,530.399964191E-6,2.91999984,
,,,530.499964952E-6,2.96000004,
,,,530.599965714E-6,2.87999988,
,,,530.699966475E-6,2.96000004,
,,,530.799967237E-6,2.83999991,
,,,530.899967998E-6,2.79999995,
,,,530.999968760E-6,2.75999999,
,,,531.099969521E-6,2.83999991,
,,,531.199970283E-6,2.75999999,
,,,531.299971044E-6,2.72000003,
,,,531.399971806E-6,2.6799998,
,,,531.499972567E-6,2.6399999,
,,,531.599973328E-6,2.5599999,
,,,531.699974090E-6,2.5599999,
,,,531.799974851E-6,2.5200000,
,,,531.899975613E-6,2.5200000,
,,,531.999976374E-6,2.3599999,
,,,532.099977136E-6,2.3599999,
,,,532.199977897E-6,2.3199999,
,,,532.299978659E-6,2.3199999,
,,,532.399979420E-6,2.2800000,
,,,532.499980181E-6,2.2000000,
,,,532.599980943E-6,2.0799999,
,,,532.699981704E-6,2.0799999,
,,,532.799982466E-6,2.0000000,
,,,532.899983227E-6,2.0000000,
,,,532.999983989E-6,1.8800000,
,,,533.099984750E-6,1.8800000,
,,,533.199985512E-6,1.7199999,
,,,533.299986273E-6,1.7600000,
,,,533.399987034E-6,1.5999999,
,,,533.499987796E-6,1.5999999,
,,,533.599988557E-6,1.4800000,
,,,533.699989319E-6,1.4399999,
,,,533.799990080E-6,1.2800000,
,,,533.899990842E-6,1.3600000,
,,,533.999991603E-6,1.1999999,
,,,534.099992365E-6,1.1999999,
,,,534.199993126E-6,1.0799999,
,,,534.299993888E-6,1.0400000,
,,,534.399994649E-6,879.999995232E-3,
,,,534.499995410E-6,919.999957085E-3,
,,,534.599996172E-6,759.999990463E-3,
,,,534.699996933E-6,759.999990463E-3,
,,,534.799997695E-6,599.999964237E-3,
